{
	"title": "RAPID SEQUENCE INTUBATION (RSI) WITH NEUROMUSCULAR BLOCKADE",
	"content": [
		{
			"type": "heading",
			"content": "Rapid Sequence Intubation (RSI) With Neuromuscular Blockade"
		},
		{
			"type": "subheading",
			"content": "EMTP"
		},
		{
			"type": "list",
			"content": [
				"Ensure that a functioning and secure IV line is in place.",
				"Establish a cardiac monitor.",
				"In adult patients with the potential for an elevated ICP (e.g., head injury; IC bleed; hypertensive crises), or those with ventricular dysrhythmias, premedicate with <strong>lidocaine</strong>, 1 mg/kg IV, prior to administration of succinylcholine.",
				{
					"type": "list",
					"text": "Administer <strong>etomidate</strong>, 0.3 mg/kg, IV push, unless unconscious and unresponsive.",
					"content": [
						"For pediatrics consider Versed 0.2 mg/kg (maximum dose of 10 mg)."
					]
				},
				"In children and adolescents, administer <strong>atropine</strong>, 0.02 mg/kg (minimum of 0.1 mg, and a maximum of 0.5 mg) IV push.",
				"Approximately 45-60 seconds following administration of <strong>etomidate</strong>, administer <strong>succinylcholine</strong>, 1.5 mg/kg IV push.",
				"Proceed with ET intubation in accordance with applicable protocol.",
				"If patient becomes combative or requires additional sedation during transport, administer repeated doses of <strong>midazolam</strong> 2 – 10mg IV or <strong>morphine sulfate</strong> 2 – 10 mg IV or fentanyl at 50 micrograms, up to a total of 500 micrograms. If still unable to control patient, administer <strong>vecuronium</strong> 0.1 mg/kg IV push.",
				"Place NG, if time allows, for decompression."
			]
		},
		{
			"type": "subheading",
			"content": "EMTP"
		},
		{
			"type": "list",
			"content": [
				{
					"type": "list",
					"text": "Paralytic agents (Succinylcholine) may be used without medical control contact in the following circumstances:",
					"content": [
						"Any trauma patient with a GCS score of 8 or less.",
						"Any patient in which the loss of a patent airway could occur in less than 5 minutes (burn patient with airway edema, anaphylaxis, epiglottitis)."
					]
				},
				{
					"type": "list",
					"text": "For all other circumstances and conditions, paralytic agents may only be used with the authorization of Medical Control.",
					"content": [
						"If Medical Control leaves the intubation to the discretion of the paramedic, the paramedic may use paralytics to intubate.",
						"Intubation of patients not requiring paralysis may still be performed without Medical Control contact."
					]
				}
			]
		}
	]
}
