{
	"title": "CARDIOPULMONARY ARREST Initial Resuscitation",
	"content": [
		{
			"type": "heading",
			"content": "Cardipulmonary Arrest Initial Resuscitation"
		},
		{
		"type": "subheading",
		"content": "EMR, EMT, AEMT & EMTP"
		},
		{
		  "type": "list",
		  "content": [
				"<strong>AEMT & EMTP</strong> – Upon arrival, if BLS providers, equipped with an automated defibrillator, are already at the scene and defibrillation is indicated allow them to complete the shock, before disconnecting their device.",
				"<strong>GOALS OF RESUSCITATION</strong>",
				{
					"type": "list",
					"text": "High quality CPR",
					"content": [
						"compressions first, performed at a rate of 30:2 for 5 cycles",
						"compressors switching every 2 minutes.",
						"minimizing interruptions to chest compressions."
					]
				},
				{
					"type": "list",
					"text": "Drug therapy is prepared during compression cycle by anticipating rhythm prior to rhythm check and given immediately following a “shock”/”no shock” advised",
					"content": [
						"Allowing medications to circulate for a FULL 2 MINUTES of CPR."
					]
				},
				"<strong>EMT</strong> – If King Airway technician is on-scene, placement of the device may be done after the first shock, or after a \"no shock\" is indicated. Place in accordance with <em>Appendix A</em>.",
				"<strong>EMTP – If the King Airway is functioning with adequate chest rise and fall, leave device in place and DO NOT REMOVE</strong>.",
				"<strong>EMTP – Endotracheal intubation with CPR in progress. If unable to do that, utilize the King Airway.</strong>.",
				"<strong>EMTP</strong> - Once an advanced airway is placed, monitor end title CO2.",
				{
					"type": "list",
					"text": "If CO2 reading less than 10 do the following:",
					"content": [
						"attempt to improve CPR quality",
						"if end title CO2 remains less than 10, perform (3) cycles of adequate CPR before considering termination of efforts.",
						"if a sudden rise of end title CO2 is noted, it is likely the patient may have a ROSC."
					]
				},
				{
					"type": "list",
					"text": "<strong>Once an advanced airway is in place provide ventilations at a rate of 8 to 10 breaths a minute without pause in chest compressions.</strong>",
					"content": [
						"Each ventilation should be about 1 second in length, with sufficient chest rise and fall."
					]
				},
				"Perform resuscitation efforts until patient is breathing and has a pulse, care is released to a higher authority, there are obvious signs of death (lividity, rigor) or an advanced directive is presented. If prolonged time in the field, contact Medical Control for advice.",
				"<strong>EMTP</strong> - If peripheral IV attempt is unsuccessful, consider attempting external jugular cannulation.",
				"<strong>EMTIV, AEMT</strong> - if an IV cannot be established within two attempts, or less than 90 seconds, a VidacareTM EZ-IOTM may be placed per manufacturer’s instructions. <em>See Appendix B</em>.",
				"<strong>EMTP</strong> – Medications administered via peripheral IV access should be followed by a <strong>20mL NaCl</strong> bolus of IV fluid and elevation of the extremity.",
				"<strong>EMTP</strong> - If time allows, insert NG tube for gastric decompression."
		  ]
		}
	]
}
