{
  "title": "ENVIRONMENTAL EMERGENCIES<br>COLD EMERGENCIES",
  "content": [
    {
      "type": "heading",
      "content": "Environmental Emergencies<br>Cold Emergencies"
    },
    {
      "type": "subheading",
      "content": "EMR, EMT, AEMT & EMTP"
    },
    {
      "type": "list",
      "content": [
        "Remove patient from inclement environment, move to a warm place, and remove wet clothing.",
        "Handle patient gently, and wrap in blankets to prevent further heat loss.",
        "Apply heat packs to the neck, groin, and armpits and attempt to re-warm.",
        "Do not massage extremities to re-warm or allow patient to walk or exert him/herself.",
        "Monitor patient for shock.",
        "Provide oxygen as needed.",
        "Take patient’s oral and/or core temperature",
        "In cases of severe hypothermia, in which patient is unconscious, assess pulses for 30 – 45 seconds. If indicated, a shock can be delivered. If unsuccessful, CPR should be initiated and re-warming begun."
      ]
    },
    {
      "type": "heading",
      "content": "Heat Emergencies"
    },
    {
      "type": "subheading",
      "content": "EMR, EMT, AEMT & EMTP"
    },
    {
      "type": "list",
      "content": [
        "Remove patient from hot environment, move to a cool place and loosen or remove clothing.",
        "Apply cold packs to neck, groin, and armpits. Keep the skin wet by applying water with wet towels and fan the patient.",
        "Administer oxygen by non-rebreather mask at 15 lpm.",
        {
          "type": "list",
          "text": "If available, use cooled and humidified oxygen.",
          "content": [
            "Administer oxygen by non-rebreather mask at 15 lpm."
          ]
        },
        "Take patient oral and/or core temperature",
        "<strong>EMT</strong> - If patient is responsive and not nauseated, have him/her drink small sips of water. If this causes nausea or vomiting, do not give any more water. Be alert for vomiting and airway problems.",
        "<strong>EMT</strong> - If patient is unconscious with pulses, place on left side and transport immediately.",
        "<strong>EMT</strong> - If patient experiences muscular cramps, apply moist towels over cramped muscles.",
        "<strong>AEMT</strong> - Establish IV and administer NaCl at a wide-open rate to infuse 1 liter and then adjust to a rate to maintain patient systolic blood pressure of 90 or greater. If time permits establish a 2nd peripheral IV and administer NaCl at a TKO rate.",
        "<strong>EMTP</strong> - Establish cardiac monitor (4-lead EKG) to monitor patient for dysrhythmias."


      ]
    }
  ]

}
