{
	"title": "NARCOTICS OVERDOSE",
	"content": [
		{
			"type": "heading",
			"content": "Narcotics Overdose"
		},
		{
			"type": "subheading",
			"content": "EMR, EMT, AEMT, EMTP"
		},
		{
			"type": "list",
			"content": [
				"Establish and maintain airway.",
				"<strong>EMT</strong> – If ventilating adequately, administer oxygen and if available, use pulse oximetry to titrate saturations to greater than 90%.",
				"<strong>EMT</strong> – If patient is apneic or hypoventilating, assist ventilations with BVM or OPVD and supplemental oxygen at 10 – 15 lpm.",
				"<strong>EMTIV</strong> – Establish peripheral IV with NaCl @ a rate to maintain the patient’s systolic blood pressure at least 90.",
				"<strong>EMTP</strong> – If patient is apneic, or suspected to become uncooperative and /or violent, administer <strong>NALOXONE, 0.4 – 4mg, IV bolus or IM</strong>. Titrate to minimum respiratory rate of 10 min and to a point where the patient can be managed.",
				"If no response to <strong>NALOXONE</strong>, refer to <em>M2</em>.",
				"<strong>EMTP</strong> – Consider ET intubation."
			]
		},
		{
			"type": "heading",
			"content": "Insect Bites / Stings"
		},
		{
			"type": "subheading",
			"content": "EMR, EMT, AEMT, EMTP"
		},
		{
			"type": "list",
			"content": [
				{
					"type": "list",
					"text": "If patient sustains a bite or sting (spider, snake, insect, etc.):",
					"content": [
						"Scrape site to remove stinger; do not pull straight out.",
						"Remove constricting items (e.g., rings) before swelling occurs.",
						"Keep limb immobilized below the heart.",
						"If a snake bite, restrict patient’s movement (do not apply cold pack)."
					]
				}
			]
		}
	]
}
