{
	"title": "HYPOTENSION – UNKNOWN ETIOLOGY",
	"content": [
		{
			"type": "heading",
			"content": "Hypotension - Unknown Etiology"
		},
		{
			"type": "subheading",
			"content": "EMR, EMT, AEMT, EMTP"
		},
		{
			"type": "list",
			"content": [
				"Establish and maintain airway.",
				"<strong>EMT</strong> – Administer oxygen via nasal cannula 1 – 4 lpm or non-rebreather 10 – 15 lpm. If pulse oximeter is available, titrate saturations to greater than 90%.",
				"<strong>EMT</strong> – Obtain serial vital signs every 5 minutes.",
				{
					"type": "list",
					"text": "<strong>EMTIV</strong> – Establish large-bore IV with NaCl, and fluid challenge in 200 mL increments to maintain a systolic blood pressure above 90 mmHg with an attempt to return patient to a normal blood pressure.",
					"content": [
						"Prior to rebolusing evaluate lung sounds."
					]
				},
				"<strong>EMTIV</strong> – Consider drawing blood, in accordance with Appendix B.",
				"<strong>EMTIV</strong> – If no improvement with first IV, and no signs of CHF, establish second large- bore IV with NaCl to maintain patient systolic blood pressure of at least 90 with both IV’s in place.",
				"<strong>EMTIV – <em>Verbal Order</em></strong> – if an IV cannot be established, a VidacareTM EZ-IOTM may be placed per manufacturer’s instructions. See <em>Appendix B</em>.",
				"<strong>AEMT, EMTP</strong> – Establish cardiac monitor.",
				"<strong>AEMT, EMTP</strong> – If hypotension is secondary to cardiac origin, refer to <em>Cardiogenic Shock Protocol</em>.",
				{
					"type": "list",
					"text": "<strong>EMTP</strong> – If no response, or inadequate response to fluid challenge, and systolic BP < 90 mm Hg:",
					"content": [
						"Administer <strong>DOPAMINE 5 – 20 mcg/kg/minute, IV piggyback</strong> with metered flow tubing, until blood pressure reaches 90 mm Hg or greater systolic. Mix <strong>DOPAMINE, 400mg in 250mL NaCl</strong>, for a concentration of <strong>1600 mcg/mL</strong>."
					]
				}
			]
		}
	]
}
