{
	"title": "MULTISYSTEM TRAUMA",
	"content": [
		{
			"type": "heading",
			"content": "Multisystem Trauma"
		},
		{
			"type": "subheading",
			"content": "EMR, EMT, AEMT, EMTP"
		},
		{
			"type": "list",
			"content": [
				"Establish and maintain airway.",
				"Assess ABCs and expose patient looking for signs of injury.",
				"Provide spinal immobilization.",
				"Administer oxygen via non-rebreather 10 – 15 lpm. If available, use pulse oximeter to titrate saturations to greater than 90%",
				"Control severe external hemorrhage as indicated.",
				"<strong>EMT</strong> – Apply an approved pelvic splint device if pelvic fracture is suspected.",
				"Treat life-threatening conditions as indicated."
			]
		},
		{
			"type": "paragraph",
			"content": "<br><strong>If patient meets “Trauma Alert” criteria do not delay transport for the following procedures. Patient should be transported within 10 minutes. In this case, the following procedures would be performed during transport.</strong>"
		},
		{
			"type": "list",
			"start": 8,
			"content": [
				"Cover open wounds with sterile dressings.",
				"Splint fractures with appropriate device.",
				"<strong>EMTIV</strong> – Establish peripheral IV access with NaCl @ a rate to maintain patient systolic blood pressure of at least 90. If time permits establish a 2nd peripheral IV.",
				"<strong>EMTP</strong> – Consider endotracheal intubation in accordance with <em>Appendix A</em>."
			]
		}
	]
}
